{"_id":0, "username":"coop", "first_name":"Dr.", "last_name":"cooper"}
{"_id":1, "username":"naruto", "first_name":"naruto", "last_name":"Uzumaki"}
{"_id":2, "username":"sandaime", "first_name":"sarotobi", "last_name":"hiruzen"}
{"_id":3, "username":"V", "first_name":"guy", "last_name":"fawkes"}
{"_id":4, "username":"realTrump", "first_name":"Donald", "last_name":"Trump"}
{"_id":5, "username":"pain", "first_name":"nagato", "last_name":"Uzumaki"}
{"_id":6, "username":"gandolf", "first_name":"gandolf", "last_name":"the gray"}
{"_id":7, "username":"jc", "first_name":"jesus", "last_name":"christ"}
{"_id":8, "username":"alan", "first_name":"alan", "last_name":"Turing"}
{"_id":9, "username":"Dennis", "first_name":"Dennis", "last_name":"Richie"}